<?xml version="1.0" encoding="UTF-8" standalone="no"?>
<!-- Created with Inkscape (http://www.inkscape.org/) -->

<svg
   width="180"
   height="180"
   viewBox="0 0 180 180"
   version="1.1"
   id="svg5"
   inkscape:version="1.1.2 (0a00cf5339, 2022-02-04)"
   sodipodi:docname="logo.svg"
   inkscape:export-filename="/home/wjatscheslaw/Documents/Projects/sprachschule-maeurerde/public/logo512.png"
   inkscape:export-xdpi="102.4"
   inkscape:export-ydpi="102.4"
   xmlns:inkscape="http://www.inkscape.org/namespaces/inkscape"
   xmlns:sodipodi="http://sodipodi.sourceforge.net/DTD/sodipodi-0.dtd"
   xmlns="http://www.w3.org/2000/svg"
   xmlns:svg="http://www.w3.org/2000/svg">
  <sodipodi:namedview
     id="namedview7"
     pagecolor="#505050"
     bordercolor="#eeeeee"
     borderopacity="1"
     inkscape:pageshadow="0"
     inkscape:pageopacity="0"
     inkscape:pagecheckerboard="0"
     inkscape:document-units="px"
     showgrid="false"
     inkscape:zoom="4.85"
     inkscape:cx="91.752577"
     inkscape:cy="94.845361"
     inkscape:window-width="1277"
     inkscape:window-height="1408"
     inkscape:window-x="1280"
     inkscape:window-y="29"
     inkscape:window-maximized="1"
     inkscape:current-layer="layer1" />
  <defs
     id="defs2" />
  <g
     inkscape:label="Layer 1"
     inkscape:groupmode="layer"
     id="layer1">
    <g
       aria-label="眞"
       id="text1178"
       style="font-size:192px;stroke:#ffffff;stroke-width:2">
      <g
         id="path14099">
        <path
           style="color:#000000;-inkscape-font-specification:'Kosugi Maru, Normal';fill:#000000;stroke:none;-inkscape-stroke:none"
           d="m 85.594983,48.921249 q -10.875,0 -22.125,0 -11.25,-0.1875 -22.3125,-1.125 -7.3125,-0.75 -11.625,-4.125 -4.3125,-3.5625 -4.3125,-11.4375 v -21.5625 q 0,-3.9374996 1.875,-6.3749996 1.875,-2.4375 6,-2.4375 4.5,0 6,2.25 1.6875,2.0625 1.6875,5.4375 0.1875,3.1874996 0.1875,6.3749996 25.875,-1.3125 51.375,-3.75 25.687497,-2.6249996 51.187497,-7.4999996 1.125,-0.1875 2.4375,-0.5625 1.5,-0.375 2.625,-0.375 6.75,0 6.75,6.5624996 0,3.5625 -3.375,4.875 -3.375,1.3125 -6,1.875 -15.375,3.375 -33.75,5.25 -18.374997,1.875 -36.937497,2.8125 -18.5625,0.9375 -34.3125,1.5 0,5.625 2.8125,7.3125 3,1.6875 8.0625,2.0625 12.75,1.125 25.875,1.3125 13.3125,0 26.249997,0 6,0 14.4375,0.1875 8.625,0 17.0625,-0.375 8.625,-0.375 14.25,-1.5 4.3125,-0.9375 5.8125,-3.375 1.6875,-2.4375 2.25,-5.25 0.75,-2.8125 2.25,-4.875 1.5,-2.0625 6,-2.0625 3.5625,0 5.625,1.6875 2.25,1.5 2.25,5.25 0,8.625 -3.75,13.5 -3.75,4.875 -12.375,6.375 -5.8125,0.9375 -12.1875,1.125 -6.1875,0.1875 -12.1875,0.375 -12,0.375 -24,0.5625 -11.812497,0 -23.812497,0 z m -26.8125,78.937501 q -14.625,0 -14.625,-14.4375 V 71.608749 q 0,-14.4375 14.4375,-14.4375 h 85.874997 q 14.4375,0 14.4375,14.4375 v 41.812501 q 0,14.4375 -14.4375,14.4375 z m -30.5625,21.75 q -15.1875,0 -15.1875,-15.375 V 71.233749 q 0,-4.3125 1.6875,-6.9375 1.6875,-2.8125 6.375,-2.8125 4.5,0 6.1875,2.8125 1.6875,2.8125 1.6875,6.9375 v 58.875001 q 0,3 1.875,4.875 1.875,1.875 4.875,1.875 H 170.71998 q 3.1875,0 5.25,1.5 2.0625,1.3125 2.0625,4.875 0,3.5625 -2.0625,5.0625 -2.0625,1.3125 -5.25,1.3125 z m 30.9375,-72.562501 h 84.374997 v -4.6875 q 0,-4.6875 -4.6875,-4.6875 H 63.844983 q -4.6875,0 -4.6875,4.6875 z m 0,19.6875 h 84.374997 v -9.75 H 59.157483 Z m 4.6875,20.625001 h 74.999997 q 4.6875,0 4.6875,-4.6875 v -6 H 59.157483 v 6 q 0,4.6875 4.6875,4.6875 z m -54.7499999,60.5625 q -7.3125,0 -7.3125,-7.3125 0,-2.8125 2.625,-4.3125 2.625,-1.5 5.8124999,-2.0625 3.375,-0.5625 5.25,-0.75 7.6875,-0.9375 15,-2.0625 7.3125,-1.125 14.8125,-3 3.5625,-0.9375 6.9375,-1.875 3.375,-1.125 6.9375,-1.875 1.125,-0.375 2.625,-0.5625 1.5,-0.375 2.4375,-0.375 3.375,0 5.4375,2.0625 2.25,1.875 2.25,5.25 0,2.625 -3.5625,4.3125 -3.375,1.875 -7.3125,3 -3.9375,1.125 -5.8125,1.5 -6.9375,1.5 -15,3.375 -8.0625,2.0625 -16.125,3.375 -7.875,1.3125 -14.9999999,1.3125 z m 160.1249969,-0.5625 q -2.4375,0 -9.375,-0.9375 -6.75,-0.75 -15.375,-2.4375 -8.625,-1.5 -16.875,-3.5625 -8.0625,-2.0625 -13.5,-4.5 -5.25,-2.4375 -5.25,-5.0625 0,-4.125 2.4375,-5.4375 2.625,-1.5 6.1875,-1.5 1.5,0 3,0.5625 1.5,0.375 2.8125,0.75 12.1875,3.75 23.4375,5.25 11.25,1.3125 23.8125,2.8125 3,0.375 5.0625,1.6875 2.0625,1.5 2.0625,4.875 0,4.125 -2.4375,5.8125 -2.25,1.6875 -6,1.6875 z"
           id="path14104" />
        <path
           style="color:#000000;-inkscape-font-specification:'Kosugi Maru, Normal';fill:#ffffff;stroke:none;-inkscape-stroke:none"
           d="m 33.095703,0.859375 c -2.946967,0 -5.326889,0.9222217 -6.792969,2.828125 -1.408659,1.8312572 -2.082031,4.2006479 -2.082031,6.984375 v 21.5625 c 0,5.432534 1.521852,9.601612 4.675781,12.207031 l 0.0098,0.0098 0.0098,0.0078 c 3.062718,2.39691 7.132075,3.818535 12.138671,4.332032 h 0.0098 l 0.0078,0.002 c 7.397823,0.626934 14.858561,1.003534 22.380859,1.128906 h 0.0078 22.134766 23.820317 0.008 c 8.0052,-0.125081 16.01043,-0.314291 24.01562,-0.564453 3.99967,-0.12499 8.06086,-0.25001 12.18555,-0.375 4.29002,-0.126177 8.39502,-0.504237 12.31641,-1.136719 h 0.006 l 0.006,-0.002 c 5.90607,-1.027141 10.30042,-3.245617 12.9961,-6.75 2.67377,-3.475899 3.95898,-8.214453 3.95898,-14.109375 0,-2.684838 -0.87262,-4.837501 -2.67187,-6.054688 -1.58816,-1.277165 -3.69533,-1.882812 -6.20313,-1.882812 -3.15277,0 -5.52881,0.714915 -6.80859,2.474609 -1.08054,1.485745 -1.88112,3.228512 -2.4082,5.205078 l -0.008,0.0293 -0.006,0.03125 c -0.34818,1.740902 -1.03965,3.357196 -2.09179,4.876953 l -0.0156,0.02344 -0.0137,0.02148 c -0.80581,1.309435 -2.45111,2.32998 -5.17383,2.921875 -3.67257,0.733416 -8.37305,1.2303 -14.08203,1.478516 -5.60281,0.249014 -11.26799,0.374686 -16.99609,0.375 -5.63026,-0.125117 -10.44857,-0.1875 -14.45899,-0.1875 H 77.734375 77.720703 C 68.999395,36.171954 60.404025,35.735672 51.933594,34.988281 l -0.0078,-0.002 h -0.0078 C 48.646462,34.743994 46.106302,34.073266 44.289062,33.054687 43.002654,32.27699 42.279023,30.42426 42.109375,27.558594 52.335694,27.18767 63.35085,26.712532 75.332031,26.107422 c 12.391928,-0.625855 24.723159,-1.564664 36.990239,-2.816406 12.28081,-1.253145 23.56479,-3.008389 33.85742,-5.267579 1.81995,-0.38999 3.8657,-1.030671 6.15234,-1.919921 2.53485,-0.985774 4.01367,-3.115854 4.01367,-5.806641 0,-2.3589261 -0.62633,-4.312656 -1.99023,-5.6386719 -1.3639,-1.3260159 -3.34773,-1.9238281 -5.75977,-1.9238281 -0.86111,0 -1.81207,0.1400303 -2.86914,0.4042969 l -0.0156,0.00391 -0.0156,0.00391 c -0.84476,0.2413607 -1.62256,0.421468 -2.32812,0.5390625 l -0.0117,0.00195 -0.0117,0.00195 C 126.37208,6.9340369 109.34013,9.4287458 92.244141,11.175781 75.597166,12.76695 58.82685,13.987987 41.939453,14.859375 41.922243,13.087834 41.886489,11.316383 41.783203,9.5449219 41.782852,7.1473047 41.164746,5.092486 39.890625,3.515625 38.62634,1.6638358 36.236914,0.859375 33.095703,0.859375 Z m 0,2 c 2.833331,0 4.423985,0.6887118 5.167969,1.8046875 l 0.02734,0.041016 0.0293,0.037109 c 0.955718,1.1680994 1.462891,2.7213562 1.462891,4.8046875 v 0.029297 l 0.002,0.029297 c 0.123853,2.1054912 0.185547,4.2110162 0.185547,6.3164062 v 1.050781 l 1.050781,-0.05273 c 17.264664,-0.875744 34.403017,-2.127477 51.417969,-3.753906 h 0.0039 0.0039 C 109.59338,11.413858 126.67671,8.9114351 143.69727,5.6582031 144.48191,5.5274293 145.3202,5.33206 146.21289,5.078125 c 0.94293,-0.235733 1.74392,-0.34375 2.38281,-0.34375 2.08796,0 3.47914,0.4959401 4.36524,1.3574219 0.88609,0.8614818 1.38476,2.1890088 1.38476,4.2050781 0,2.059208 -0.77313,3.177181 -2.73828,3.941406 -2.21335,0.860748 -4.16761,1.470069 -5.84765,1.830078 h -0.002 l -0.002,0.002 c -10.20638,2.240426 -21.41899,3.983762 -33.63672,5.230469 -12.232899,1.248255 -24.528671,2.18445 -36.886718,2.808594 -12.37082,0.624789 -23.804638,1.125208 -34.298828,1.5 l -0.962891,0.03516 v 0.964844 c 0,3.916663 1.001538,6.792719 3.296875,8.169922 l 0.01172,0.0059 0.01367,0.0078 c 2.181899,1.227318 5.007828,1.930412 8.478515,2.1875 8.520724,0.751487 17.164276,1.19113 25.933594,1.316406 h 0.0078 26.257809 c 3.98958,0 8.79433,0.06262 14.41407,0.1875 h 0.0117 0.0117 c 5.76449,0 11.46538,-0.126282 17.10547,-0.376953 5.78393,-0.251475 10.57692,-0.752493 14.40235,-1.517578 l 0.008,-0.002 0.008,-0.002 c 3.02187,-0.656928 5.24761,-1.88575 6.44336,-3.820312 1.18451,-1.720587 1.98957,-3.590447 2.38867,-5.585938 l -0.0156,0.0625 c 0.47291,-1.773429 1.17429,-3.280668 2.09375,-4.544921 0.72022,-0.990303 2.34418,-1.650391 5.1914,-1.650391 2.21711,0 3.83363,0.514624 4.99024,1.460937 l 0.0391,0.03125 0.041,0.02734 c 1.17998,0.786653 1.80468,2.117971 1.80468,4.417969 0,5.605067 -1.21674,9.866531 -3.54297,12.890625 -2.3026,2.993382 -6.155,5.022387 -11.74218,5.996094 -0.002,2.97e-4 -0.004,-2.98e-4 -0.006,0 -0.002,3.76e-4 -0.004,0.0016 -0.006,0.002 -3.82523,0.616431 -7.83908,0.987627 -12.04492,1.111328 h -0.002 c -4.1253,0.125009 -8.18718,0.24999 -12.1875,0.375 -7.99479,0.249837 -15.98959,0.437581 -23.98437,0.5625 H 85.595703 63.486328 63.470703 C 56.004237,47.797084 48.601079,47.422526 41.259766,46.800781 36.521341,46.314789 32.844742,44.987933 30.158203,42.888672 c -2.58775,-2.145348 -3.9375,-5.59514 -3.9375,-10.654297 v -21.5625 c 0,-2.4662671 0.574678,-4.3468854 1.666016,-5.765625 1.033918,-1.3440935 2.655956,-2.046875 5.208984,-2.046875 z m 25.5,53.3125 c -4.979162,0 -8.893207,1.260394 -11.535156,3.902344 -2.64195,2.641949 -3.902344,6.555994 -3.902344,11.535156 v 41.812505 c 0,4.98132 1.27843,8.89865 3.953125,11.53906 2.674696,2.6404 6.63235,3.89843 11.671875,3.89843 H 144.4707 c 4.97916,0 8.89321,-1.26039 11.53516,-3.90234 2.64195,-2.64195 3.90234,-6.55599 3.90234,-11.53515 V 71.609375 c 0,-4.979162 -1.26039,-8.893207 -3.90234,-11.535156 -2.64195,-2.64195 -6.556,-3.902344 -11.53516,-3.902344 z m 0,2 H 144.4707 c 4.64583,0 7.95055,1.145861 10.1211,3.316406 2.17054,2.170546 3.3164,5.475265 3.3164,10.121094 v 41.812505 c 0,4.64582 -1.14586,7.95054 -3.3164,10.12109 -2.17055,2.17054 -5.47527,3.31641 -10.1211,3.31641 H 58.783203 c -4.710465,0 -8.067278,-1.15018 -10.267578,-3.32227 -2.2003,-2.17209 -3.357422,-5.47157 -3.357422,-10.11523 V 71.609375 c 0,-4.645829 1.145861,-7.950548 3.316406,-10.121094 2.170546,-2.170545 5.475265,-3.316406 10.121094,-3.316406 z m -37.5,2.3125 c -3.318324,0 -5.885214,1.068957 -7.222656,3.285156 -1.254361,1.957781 -1.839844,4.465577 -1.839844,7.464844 v 62.999995 c 0,5.28963 1.318503,9.4328 4.083984,12.23243 2.765482,2.79962 6.872297,4.14257 12.103516,4.14257 H 170.7207 c 2.26226,0 4.21526,-0.46848 5.78711,-1.46875 l 0.0254,-0.0176 0.0254,-0.0176 c 1.67955,-1.22149 2.47461,-3.30312 2.47461,-5.8711 0,-2.55789 -0.80295,-4.60295 -2.50976,-5.70117 -1.56811,-1.12858 -3.5361,-1.67382 -5.80274,-1.67383 H 35.720703 c -1.791665,0 -3.106531,-0.52059 -4.167969,-1.58203 -1.061437,-1.06143 -1.582031,-2.3763 -1.582031,-4.16797 V 71.234375 c 0,-2.886361 -0.59411,-5.393178 -1.830078,-7.453125 -1.326762,-2.21127 -3.836592,-3.296875 -7.044922,-3.296875 z m 0,2 c 2.791664,0 4.406842,0.787445 5.330078,2.326172 1.01403,1.690049 1.544922,3.810194 1.544922,6.423828 v 58.874995 c 0,2.20834 0.729409,4.14348 2.167969,5.58204 1.43856,1.43856 3.3737,2.16796 5.582031,2.16796 H 170.7207 c 1.96814,0 3.48334,0.45273 4.66016,1.3086 l 0.0254,0.0176 0.0273,0.0176 c 1.02927,0.65499 1.59961,1.84924 1.59961,4.03125 0,2.1685 -0.57894,3.45434 -1.63672,4.23438 -1.17411,0.73679 -2.70602,1.14062 -4.67578,1.14062 H 28.220703 c -4.893771,0 -8.382674,-1.2215 -10.679687,-3.54687 -2.297014,-2.32537 -3.507813,-5.86776 -3.507813,-10.82813 V 71.234375 c 0,-2.744562 0.537046,-4.856021 1.527344,-6.396484 l 0.0098,-0.01367 0.0078,-0.01367 c 0.914829,-1.524716 2.592581,-2.326172 5.517578,-2.326172 z m 42.75,4.1875 c -1.729165,0 -3.205705,0.447893 -4.222656,1.464844 -1.016951,1.016951 -1.464844,2.493491 -1.464844,4.222656 v 5.6875 h 1 85.374997 v -5.6875 c 0,-1.729165 -0.44789,-3.205705 -1.46484,-4.222656 -1.01695,-1.016951 -2.49349,-1.464844 -4.22266,-1.464844 z m 0,2 H 138.8457 c 1.39584,0 2.26305,0.333359 2.8086,0.878906 0.54554,0.545547 0.8789,1.412762 0.8789,2.808594 v 3.6875 H 60.158203 v -3.6875 c 0,-1.395832 0.333359,-2.263047 0.878906,-2.808594 0.545548,-0.545547 1.412762,-0.878906 2.808594,-0.878906 z m -5.6875,17.3125 v 11.75 h 1 85.374997 v -11.75 z m 2,2 H 142.5332 v 7.75 H 60.158203 Z m -2,17.687505 v 7 c 0,1.72916 0.447893,3.2057 1.464844,4.22265 1.016951,1.01695 2.493491,1.46485 4.222656,1.46485 H 138.8457 c 1.72917,0 3.20571,-0.4479 4.22266,-1.46485 1.01695,-1.01695 1.46484,-2.49349 1.46484,-4.22265 v -7 z m 2,2 H 142.5332 v 5 c 0,1.39583 -0.33336,2.26304 -0.8789,2.80859 -0.54555,0.54555 -1.41276,0.8789 -2.8086,0.87891 H 63.845703 c -1.395832,0 -2.263046,-0.33336 -2.808594,-0.87891 -0.545547,-0.54555 -0.878906,-1.41276 -0.878906,-2.80859 z m 4.0625,45.06249 c -0.740104,0 -1.602917,0.14454 -2.617187,0.39454 -1.024622,0.13117 -1.945759,0.32144 -2.757813,0.59179 -0.0012,4.1e-4 -0.0027,0.002 -0.0039,0.002 -2.372043,0.50366 -4.686083,1.12452 -6.9375,1.875 l 0.04883,-0.0156 c -2.241537,0.62265 -4.547531,1.24631 -6.914063,1.86914 -4.971461,1.24287 -9.877447,2.23731 -14.720703,2.98242 -4.864203,0.74834 -9.853646,1.43285 -14.96875,2.05664 -1.288023,0.12942 -3.042149,0.38235 -5.294921,0.75782 h -0.0039 -0.0039 c -2.2285432,0.39327 -4.2801331,1.11989 -6.1347656,2.17968 -1.9837558,1.13358 -3.12890627,2.99554 -3.12890628,5.18164 0,2.60417 0.66664298,4.73696 2.12109378,6.19141 1.4544508,1.45445 3.5872422,2.12109 6.1914062,2.12109 4.8102079,0 9.8633529,-0.44356 15.1601559,-1.32617 5.397687,-0.87869 10.795335,-2.00894 16.191407,-3.38867 l 0.02148,-0.004 c 5.356339,-1.24555 10.338799,-2.36676 14.947266,-3.36328 l 0.01563,-0.004 c 1.306496,-0.26191 3.244889,-0.76417 5.875,-1.51563 2.679599,-0.7656 5.174329,-1.79267 7.484375,-3.07226 2.54295,-1.21079 4.117187,-3.00531 4.117187,-5.20118 0,-2.45538 -0.880462,-4.54624 -2.583984,-5.98437 -1.564312,-1.54428 -3.668365,-2.32813 -6.103516,-2.32813 z m 53.249997,0.1875 c -2.50976,0 -4.75352,0.53324 -6.66992,1.625 -2.004,1.08427 -2.95508,3.36985 -2.95508,6.3125 0,1.20834 0.61786,2.33324 1.61719,3.29688 0.99933,0.96364 2.39876,1.83051 4.21094,2.67187 l 0.006,0.002 0.006,0.004 c 3.69727,1.6574 8.24777,3.17158 13.66211,4.55664 h 0.002 0.002 c 5.51725,1.37932 11.16018,2.57098 16.92578,3.57422 0.004,8.6e-4 0.007,0.001 0.0117,0.002 0.003,5.7e-4 0.006,0.001 0.01,0.002 5.7523,1.12492 10.88811,1.93995 15.41211,2.44336 4.6404,0.62708 7.75656,0.94727 9.50976,0.94726 2.64399,0 4.87413,-0.60381 6.58594,-1.88281 1.92441,-1.3444 2.85156,-3.68076 2.85156,-6.61719 0,-2.4537 -0.81109,-4.47376 -2.47461,-5.68359 l -0.0254,-0.0195 -0.0254,-0.0156 c -1.52388,-0.96974 -3.36207,-1.57162 -5.47656,-1.83593 l -0.002,-0.002 h -0.004 c -8.37579,-1.00009 -16.31346,-1.93738 -23.81445,-2.8125 -7.43406,-0.99216 -15.1871,-2.72899 -23.25977,-5.21289 l -0.01,-0.002 -0.01,-0.004 c -0.88709,-0.25345 -1.83424,-0.50543 -2.84375,-0.75781 l 0.10742,0.0332 c -1.10261,-0.41347 -2.22461,-0.62499 -3.34961,-0.625 z m -53.249997,1.8125 c 2.046294,0 3.548317,0.58738 4.730469,1.76954 l 0.03125,0.0312 0.03516,0.0293 c 1.273311,1.0611 1.890625,2.45465 1.890625,4.48242 0,1.29762 -0.798482,2.36908 -2.992187,3.40821 l -0.0293,0.0137 -0.02734,0.0156 c -2.1799,1.21106 -4.545101,2.1817 -7.101563,2.91211 -2.612902,0.74655 -4.540948,1.24374 -5.734375,1.48243 h -0.0078 l -0.0078,0.002 c -4.630906,1.00128 -9.634346,2.1279 -15.013671,3.37891 l -0.01172,0.002 -0.0098,0.004 c -5.346799,1.36779 -10.693882,2.48533 -16.039062,3.35547 h -0.002 l -0.002,0.002 c -5.201754,0.86696 -10.145392,1.29882 -14.8339839,1.29882 -2.270831,0 -3.794297,-0.5521 -4.7773437,-1.53515 -0.9830468,-0.98305 -1.5351563,-2.50651 -1.5351563,-4.77735 0,-1.56388 0.6048531,-2.57888 2.1210938,-3.44531 1.6453639,-0.94021 3.4687819,-1.58858 5.4902341,-1.94531 2.231999,-0.37184 3.967488,-0.61941 5.175782,-0.74023 h 0.0098 l 0.01172,-0.002 c 5.134886,-0.6262 10.14351,-1.31474 15.029297,-2.0664 4.906734,-0.75489 9.875768,-1.7624 14.904297,-3.01954 h 0.0059 l 0.0059,-0.002 c 2.379174,-0.6261 4.696573,-1.25263 6.951172,-1.8789 l 0.02344,-0.006 0.02539,-0.01 c 2.213105,-0.7377 4.487513,-1.3514 6.826172,-1.84375 l 0.05664,-0.0117 0.05469,-0.0195 c 0.670943,-0.22365 1.482528,-0.39894 2.431641,-0.51758 l 0.06055,-0.008 0.05859,-0.0156 c 0.952443,-0.23811 1.703646,-0.34375 2.195312,-0.34375 z m 53.249997,0.1875 c 0.875,0 1.75105,0.16153 2.64844,0.49805 l 0.0527,0.0195 0.0547,0.0137 c 0.99049,0.24763 1.91835,0.49565 2.78125,0.74219 8.16465,2.51113 16.02496,4.27195 23.58008,5.2793 l 0.008,0.002 h 0.008 c 7.49717,0.87467 15.43274,1.81287 23.80468,2.8125 1.86758,0.23345 3.391,0.75155 4.61133,1.51953 1.07541,0.79062 1.63867,2.01515 1.63867,4.05078 0,2.55303 -0.69634,4.0823 -2.00781,4.99024 l -0.0156,0.01 -0.0156,0.0117 c -1.28666,0.965 -3.04844,1.48829 -5.39844,1.48828 -1.49679,0 -4.63259,-0.30676 -9.24218,-0.92968 l -0.0117,-0.002 h -0.0117 c -4.46465,-0.49607 -9.56382,-1.30486 -15.29297,-2.42578 l -0.01,-0.002 -0.0117,-0.002 c -5.72474,-0.99561 -11.32295,-2.1766 -16.79687,-3.54493 l -0.006,-0.002 c -5.32737,-1.36309 -9.77277,-2.84737 -13.32226,-4.4375 l -0.006,-0.004 c -0.002,-7.7e-4 -0.004,-0.001 -0.006,-0.002 -1.67995,-0.7813 -2.90395,-1.56934 -3.65235,-2.29101 -0.75066,-0.72386 -1.00586,-1.31576 -1.00586,-1.85743 0,-2.55302 0.6702,-3.89092 1.91016,-4.55859 l 0.0117,-0.006 0.0117,-0.006 c 1.5808,-0.90331 3.45676,-1.36719 5.6914,-1.36719 z"
           id="path14106" />
      </g>
    </g>
  </g>
</svg>
